info face="TektonPro-Bold" size=28 bold=0 italic=0 charset="" unicode=0 stretchH=100 smooth=1 aa=1 padding=4,4,4,4 spacing=-8,-8
common lineHeight=29 base=21 scaleW=512 scaleH=512 pages=1 packed=0
page id=0 file="tektonpro28.png"
chars count=95
char id=32   x=0     y=0     width=0     height=0     xoffset=0     yoffset=21    xadvance=5     page=0  chnl=0 
char id=124   x=0     y=0     width=14     height=38     xoffset=-3     yoffset=-5    xadvance=7     page=0  chnl=0 
char id=41   x=14     y=0     width=18     height=36     xoffset=-4     yoffset=-3    xadvance=10     page=0  chnl=0 
char id=125   x=32     y=0     width=21     height=35     xoffset=-5     yoffset=-3    xadvance=11     page=0  chnl=0 
char id=123   x=53     y=0     width=20     height=35     xoffset=-4     yoffset=-3    xadvance=10     page=0  chnl=0 
char id=91   x=73     y=0     width=17     height=35     xoffset=-2     yoffset=-3    xadvance=10     page=0  chnl=0 
char id=40   x=90     y=0     width=17     height=35     xoffset=-2     yoffset=-2    xadvance=10     page=0  chnl=0 
char id=93   x=107     y=0     width=18     height=34     xoffset=-4     yoffset=-2    xadvance=10     page=0  chnl=0 
char id=106   x=125     y=0     width=22     height=34     xoffset=-8     yoffset=-1    xadvance=7     page=0  chnl=0 
char id=36   x=147     y=0     width=23     height=32     xoffset=-4     yoffset=-3    xadvance=19     page=0  chnl=0 
char id=113   x=170     y=0     width=26     height=30     xoffset=-4     yoffset=4    xadvance=15     page=0  chnl=0 
char id=112   x=196     y=0     width=21     height=30     xoffset=-3     yoffset=4    xadvance=14     page=0  chnl=0 
char id=81   x=217     y=0     width=27     height=30     xoffset=-3     yoffset=-3    xadvance=18     page=0  chnl=0 
char id=127   x=244     y=0     width=24     height=29     xoffset=-4     yoffset=-3    xadvance=14     page=0  chnl=0 
char id=63   x=268     y=0     width=22     height=29     xoffset=-3     yoffset=-3    xadvance=13     page=0  chnl=0 
char id=33   x=290     y=0     width=14     height=29     xoffset=-3     yoffset=-3    xadvance=7     page=0  chnl=0 
char id=79   x=304     y=0     width=25     height=29     xoffset=-3     yoffset=-3    xadvance=17     page=0  chnl=0 
char id=74   x=329     y=0     width=23     height=29     xoffset=-4     yoffset=-2    xadvance=15     page=0  chnl=0 
char id=38   x=352     y=0     width=27     height=28     xoffset=-4     yoffset=-2    xadvance=17     page=0  chnl=0 
char id=35   x=379     y=0     width=27     height=28     xoffset=-4     yoffset=-2    xadvance=18     page=0  chnl=0 
char id=37   x=406     y=0     width=26     height=28     xoffset=-4     yoffset=-2    xadvance=18     page=0  chnl=0 
char id=92   x=432     y=0     width=18     height=28     xoffset=-4     yoffset=-2    xadvance=9     page=0  chnl=0 
char id=64   x=450     y=0     width=30     height=28     xoffset=-3     yoffset=1    xadvance=22     page=0  chnl=0 
char id=48   x=480     y=0     width=26     height=28     xoffset=-3     yoffset=-2    xadvance=18     page=0  chnl=0 
char id=57   x=0     y=38     width=26     height=28     xoffset=-3     yoffset=-2    xadvance=18     page=0  chnl=0 
char id=56   x=26     y=38     width=27     height=28     xoffset=-3     yoffset=-2    xadvance=19     page=0  chnl=0 
char id=55   x=53     y=38     width=26     height=28     xoffset=-3     yoffset=-2    xadvance=19     page=0  chnl=0 
char id=54   x=79     y=38     width=25     height=28     xoffset=-3     yoffset=-2    xadvance=18     page=0  chnl=0 
char id=53   x=104     y=38     width=26     height=28     xoffset=-3     yoffset=-2    xadvance=19     page=0  chnl=0 
char id=52   x=130     y=38     width=28     height=28     xoffset=-5     yoffset=-2    xadvance=18     page=0  chnl=0 
char id=51   x=158     y=38     width=26     height=28     xoffset=-3     yoffset=-2    xadvance=19     page=0  chnl=0 
char id=50   x=184     y=38     width=25     height=28     xoffset=-3     yoffset=-2    xadvance=18     page=0  chnl=0 
char id=49   x=209     y=38     width=20     height=28     xoffset=-1     yoffset=-2    xadvance=19     page=0  chnl=0 
char id=107   x=229     y=38     width=21     height=28     xoffset=-4     yoffset=-2    xadvance=12     page=0  chnl=0 
char id=104   x=250     y=38     width=21     height=28     xoffset=-3     yoffset=-2    xadvance=14     page=0  chnl=0 
char id=102   x=271     y=38     width=20     height=28     xoffset=-4     yoffset=-2    xadvance=10     page=0  chnl=0 
char id=100   x=291     y=38     width=23     height=28     xoffset=-4     yoffset=-2    xadvance=15     page=0  chnl=0 
char id=98   x=314     y=38     width=22     height=28     xoffset=-3     yoffset=-2    xadvance=14     page=0  chnl=0 
char id=90   x=336     y=38     width=26     height=28     xoffset=-5     yoffset=-2    xadvance=16     page=0  chnl=0 
char id=89   x=362     y=38     width=27     height=28     xoffset=-4     yoffset=-2    xadvance=17     page=0  chnl=0 
char id=88   x=389     y=38     width=22     height=28     xoffset=-3     yoffset=-2    xadvance=15     page=0  chnl=0 
char id=87   x=411     y=38     width=31     height=28     xoffset=-3     yoffset=-2    xadvance=23     page=0  chnl=0 
char id=85   x=442     y=38     width=24     height=28     xoffset=-3     yoffset=-2    xadvance=17     page=0  chnl=0 
char id=83   x=466     y=38     width=25     height=28     xoffset=-3     yoffset=-2    xadvance=18     page=0  chnl=0 
char id=82   x=0     y=66     width=27     height=28     xoffset=-3     yoffset=-2    xadvance=18     page=0  chnl=0 
char id=80   x=27     y=66     width=23     height=28     xoffset=-3     yoffset=-2    xadvance=15     page=0  chnl=0 
char id=77   x=50     y=66     width=29     height=28     xoffset=-3     yoffset=-2    xadvance=22     page=0  chnl=0 
char id=73   x=79     y=66     width=14     height=28     xoffset=-3     yoffset=-2    xadvance=7     page=0  chnl=0 
char id=72   x=93     y=66     width=25     height=28     xoffset=-3     yoffset=-2    xadvance=18     page=0  chnl=0 
char id=71   x=118     y=66     width=26     height=28     xoffset=-3     yoffset=-2    xadvance=19     page=0  chnl=0 
char id=70   x=144     y=66     width=23     height=28     xoffset=-3     yoffset=-2    xadvance=15     page=0  chnl=0 
char id=69   x=167     y=66     width=24     height=28     xoffset=-3     yoffset=-2    xadvance=16     page=0  chnl=0 
char id=67   x=191     y=66     width=24     height=28     xoffset=-3     yoffset=-2    xadvance=16     page=0  chnl=0 
char id=66   x=215     y=66     width=25     height=28     xoffset=-3     yoffset=-2    xadvance=18     page=0  chnl=0 
char id=47   x=240     y=66     width=18     height=27     xoffset=-4     yoffset=-1    xadvance=9     page=0  chnl=0 
char id=121   x=258     y=66     width=24     height=27     xoffset=-5     yoffset=4    xadvance=13     page=0  chnl=0 
char id=108   x=282     y=66     width=14     height=27     xoffset=-3     yoffset=-1    xadvance=7     page=0  chnl=0 
char id=103   x=296     y=66     width=22     height=27     xoffset=-4     yoffset=5    xadvance=14     page=0  chnl=0 
char id=86   x=318     y=66     width=24     height=27     xoffset=-3     yoffset=-1    xadvance=15     page=0  chnl=0 
char id=84   x=342     y=66     width=24     height=27     xoffset=-5     yoffset=-1    xadvance=14     page=0  chnl=0 
char id=78   x=366     y=66     width=24     height=27     xoffset=-3     yoffset=-1    xadvance=17     page=0  chnl=0 
char id=76   x=390     y=66     width=21     height=27     xoffset=-3     yoffset=-1    xadvance=13     page=0  chnl=0 
char id=75   x=411     y=66     width=25     height=27     xoffset=-3     yoffset=-1    xadvance=16     page=0  chnl=0 
char id=68   x=436     y=66     width=25     height=27     xoffset=-3     yoffset=-1    xadvance=17     page=0  chnl=0 
char id=65   x=461     y=66     width=27     height=27     xoffset=-4     yoffset=-1    xadvance=18     page=0  chnl=0 
char id=116   x=488     y=66     width=23     height=26     xoffset=-5     yoffset=0    xadvance=13     page=0  chnl=0 
char id=105   x=0     y=94     width=14     height=26     xoffset=-3     yoffset=0    xadvance=7     page=0  chnl=0 
char id=59   x=14     y=94     width=14     height=24     xoffset=-4     yoffset=5    xadvance=6     page=0  chnl=0 
char id=43   x=28     y=94     width=23     height=22     xoffset=-3     yoffset=4    xadvance=16     page=0  chnl=0 
char id=62   x=51     y=94     width=21     height=22     xoffset=-2     yoffset=4    xadvance=15     page=0  chnl=0 
char id=60   x=72     y=94     width=20     height=22     xoffset=-2     yoffset=4    xadvance=16     page=0  chnl=0 
char id=122   x=92     y=94     width=22     height=22     xoffset=-4     yoffset=4    xadvance=14     page=0  chnl=0 
char id=120   x=114     y=94     width=20     height=22     xoffset=-3     yoffset=4    xadvance=12     page=0  chnl=0 
char id=119   x=134     y=94     width=25     height=22     xoffset=-3     yoffset=4    xadvance=17     page=0  chnl=0 
char id=118   x=159     y=94     width=21     height=22     xoffset=-4     yoffset=4    xadvance=12     page=0  chnl=0 
char id=117   x=180     y=94     width=21     height=22     xoffset=-3     yoffset=4    xadvance=14     page=0  chnl=0 
char id=115   x=201     y=94     width=22     height=22     xoffset=-3     yoffset=4    xadvance=15     page=0  chnl=0 
char id=111   x=223     y=94     width=22     height=22     xoffset=-3     yoffset=4    xadvance=14     page=0  chnl=0 
char id=110   x=245     y=94     width=21     height=22     xoffset=-3     yoffset=4    xadvance=14     page=0  chnl=0 
char id=109   x=266     y=94     width=28     height=22     xoffset=-3     yoffset=4    xadvance=21     page=0  chnl=0 
char id=101   x=294     y=94     width=22     height=22     xoffset=-3     yoffset=4    xadvance=14     page=0  chnl=0 
char id=99   x=316     y=94     width=21     height=22     xoffset=-3     yoffset=4    xadvance=14     page=0  chnl=0 
char id=58   x=337     y=94     width=13     height=21     xoffset=-4     yoffset=5    xadvance=6     page=0  chnl=0 
char id=114   x=350     y=94     width=20     height=21     xoffset=-3     yoffset=5    xadvance=11     page=0  chnl=0 
char id=97   x=370     y=94     width=22     height=21     xoffset=-4     yoffset=5    xadvance=14     page=0  chnl=0 
char id=61   x=392     y=94     width=21     height=19     xoffset=-2     yoffset=5    xadvance=16     page=0  chnl=0 
char id=94   x=413     y=94     width=22     height=18     xoffset=-2     yoffset=-1    xadvance=16     page=0  chnl=0 
char id=39   x=435     y=94     width=13     height=18     xoffset=-3     yoffset=-3    xadvance=5     page=0  chnl=0 
char id=34   x=448     y=94     width=17     height=18     xoffset=-3     yoffset=-3    xadvance=9     page=0  chnl=0 
char id=42   x=465     y=94     width=19     height=17     xoffset=-3     yoffset=-2    xadvance=11     page=0  chnl=0 
char id=126   x=484     y=94     width=22     height=15     xoffset=-3     yoffset=7    xadvance=16     page=0  chnl=0 
char id=44   x=0     y=120     width=13     height=15     xoffset=-4     yoffset=14    xadvance=6     page=0  chnl=0 
char id=96   x=13     y=120     width=15     height=15     xoffset=-3     yoffset=-2    xadvance=10     page=0  chnl=0 
char id=45   x=28     y=120     width=17     height=13     xoffset=-3     yoffset=8    xadvance=9     page=0  chnl=0 
char id=46   x=45     y=120     width=13     height=13     xoffset=-3     yoffset=13    xadvance=6     page=0  chnl=0 
char id=95   x=58     y=120     width=24     height=12     xoffset=-4     yoffset=18    xadvance=14     page=0  chnl=0 
