info face="TektonPro-Bold" size=24 bold=0 italic=0 charset="" unicode=0 stretchH=100 smooth=1 aa=1 padding=4,4,4,4 spacing=-8,-8
common lineHeight=25 base=18 scaleW=512 scaleH=512 pages=1 packed=0
page id=0 file="tektonpro24.png.png"
chars count=95
char id=32   x=0     y=0     width=0     height=0     xoffset=0     yoffset=18    xadvance=4     page=0  chnl=0 
char id=124   x=0     y=0     width=13     height=34     xoffset=-3     yoffset=-5    xadvance=6     page=0  chnl=0 
char id=125   x=13     y=0     width=18     height=32     xoffset=-4     yoffset=-3    xadvance=8     page=0  chnl=0 
char id=123   x=31     y=0     width=18     height=31     xoffset=-4     yoffset=-2    xadvance=9     page=0  chnl=0 
char id=93   x=49     y=0     width=16     height=31     xoffset=-4     yoffset=-3    xadvance=8     page=0  chnl=0 
char id=91   x=65     y=0     width=16     height=31     xoffset=-2     yoffset=-2    xadvance=8     page=0  chnl=0 
char id=41   x=81     y=0     width=16     height=31     xoffset=-4     yoffset=-2    xadvance=7     page=0  chnl=0 
char id=40   x=97     y=0     width=15     height=31     xoffset=-2     yoffset=-2    xadvance=8     page=0  chnl=0 
char id=36   x=112     y=0     width=22     height=30     xoffset=-4     yoffset=-4    xadvance=16     page=0  chnl=0 
char id=106   x=134     y=0     width=19     height=30     xoffset=-7     yoffset=-1    xadvance=5     page=0  chnl=0 
char id=112   x=153     y=0     width=19     height=27     xoffset=-3     yoffset=3    xadvance=12     page=0  chnl=0 
char id=81   x=172     y=0     width=24     height=27     xoffset=-3     yoffset=-3    xadvance=15     page=0  chnl=0 
char id=127   x=196     y=0     width=22     height=26     xoffset=-4     yoffset=-3    xadvance=12     page=0  chnl=0 
char id=64   x=218     y=0     width=27     height=26     xoffset=-3     yoffset=0    xadvance=19     page=0  chnl=0 
char id=63   x=245     y=0     width=21     height=26     xoffset=-4     yoffset=-3    xadvance=11     page=0  chnl=0 
char id=55   x=266     y=0     width=23     height=26     xoffset=-3     yoffset=-3    xadvance=16     page=0  chnl=0 
char id=113   x=289     y=0     width=22     height=26     xoffset=-3     yoffset=4    xadvance=12     page=0  chnl=0 
char id=102   x=311     y=0     width=19     height=26     xoffset=-4     yoffset=-3    xadvance=9     page=0  chnl=0 
char id=79   x=330     y=0     width=23     height=26     xoffset=-3     yoffset=-3    xadvance=15     page=0  chnl=0 
char id=38   x=353     y=0     width=24     height=25     xoffset=-3     yoffset=-2    xadvance=14     page=0  chnl=0 
char id=35   x=377     y=0     width=23     height=25     xoffset=-3     yoffset=-2    xadvance=15     page=0  chnl=0 
char id=37   x=400     y=0     width=22     height=25     xoffset=-3     yoffset=-2    xadvance=15     page=0  chnl=0 
char id=92   x=422     y=0     width=18     height=25     xoffset=-4     yoffset=-2    xadvance=8     page=0  chnl=0 
char id=47   x=440     y=0     width=18     height=25     xoffset=-4     yoffset=-2    xadvance=8     page=0  chnl=0 
char id=33   x=458     y=0     width=13     height=25     xoffset=-3     yoffset=-2    xadvance=6     page=0  chnl=0 
char id=48   x=471     y=0     width=24     height=25     xoffset=-3     yoffset=-2    xadvance=16     page=0  chnl=0 
char id=57   x=0     y=34     width=23     height=25     xoffset=-3     yoffset=-2    xadvance=15     page=0  chnl=0 
char id=56   x=23     y=34     width=23     height=25     xoffset=-3     yoffset=-2    xadvance=16     page=0  chnl=0 
char id=54   x=46     y=34     width=24     height=25     xoffset=-3     yoffset=-2    xadvance=16     page=0  chnl=0 
char id=53   x=70     y=34     width=23     height=25     xoffset=-3     yoffset=-2    xadvance=15     page=0  chnl=0 
char id=51   x=93     y=34     width=23     height=25     xoffset=-3     yoffset=-2    xadvance=15     page=0  chnl=0 
char id=50   x=116     y=34     width=23     height=25     xoffset=-3     yoffset=-2    xadvance=16     page=0  chnl=0 
char id=121   x=139     y=34     width=22     height=25     xoffset=-5     yoffset=3    xadvance=12     page=0  chnl=0 
char id=107   x=161     y=34     width=19     height=25     xoffset=-3     yoffset=-2    xadvance=11     page=0  chnl=0 
char id=104   x=180     y=34     width=19     height=25     xoffset=-3     yoffset=-2    xadvance=11     page=0  chnl=0 
char id=98   x=199     y=34     width=20     height=25     xoffset=-3     yoffset=-2    xadvance=12     page=0  chnl=0 
char id=90   x=219     y=34     width=23     height=25     xoffset=-4     yoffset=-2    xadvance=14     page=0  chnl=0 
char id=89   x=242     y=34     width=24     height=25     xoffset=-4     yoffset=-2    xadvance=14     page=0  chnl=0 
char id=88   x=266     y=34     width=21     height=25     xoffset=-3     yoffset=-2    xadvance=13     page=0  chnl=0 
char id=87   x=287     y=34     width=27     height=25     xoffset=-3     yoffset=-2    xadvance=19     page=0  chnl=0 
char id=85   x=314     y=34     width=22     height=25     xoffset=-3     yoffset=-2    xadvance=15     page=0  chnl=0 
char id=82   x=336     y=34     width=23     height=25     xoffset=-3     yoffset=-2    xadvance=14     page=0  chnl=0 
char id=78   x=359     y=34     width=22     height=25     xoffset=-3     yoffset=-2    xadvance=15     page=0  chnl=0 
char id=77   x=381     y=34     width=26     height=25     xoffset=-3     yoffset=-2    xadvance=19     page=0  chnl=0 
char id=76   x=407     y=34     width=19     height=25     xoffset=-3     yoffset=-2    xadvance=11     page=0  chnl=0 
char id=75   x=426     y=34     width=22     height=25     xoffset=-3     yoffset=-2    xadvance=14     page=0  chnl=0 
char id=74   x=448     y=34     width=21     height=25     xoffset=-4     yoffset=-1    xadvance=13     page=0  chnl=0 
char id=73   x=469     y=34     width=13     height=25     xoffset=-3     yoffset=-2    xadvance=6     page=0  chnl=0 
char id=72   x=482     y=34     width=22     height=25     xoffset=-3     yoffset=-2    xadvance=15     page=0  chnl=0 
char id=67   x=0     y=59     width=21     height=25     xoffset=-3     yoffset=-2    xadvance=13     page=0  chnl=0 
char id=66   x=21     y=59     width=22     height=25     xoffset=-3     yoffset=-2    xadvance=15     page=0  chnl=0 
char id=65   x=43     y=59     width=24     height=25     xoffset=-4     yoffset=-2    xadvance=15     page=0  chnl=0 
char id=52   x=67     y=59     width=24     height=24     xoffset=-4     yoffset=-1    xadvance=15     page=0  chnl=0 
char id=49   x=91     y=59     width=18     height=24     xoffset=-1     yoffset=-1    xadvance=16     page=0  chnl=0 
char id=108   x=109     y=59     width=13     height=24     xoffset=-3     yoffset=-1    xadvance=5     page=0  chnl=0 
char id=103   x=122     y=59     width=19     height=24     xoffset=-3     yoffset=4    xadvance=11     page=0  chnl=0 
char id=100   x=141     y=59     width=21     height=24     xoffset=-4     yoffset=-1    xadvance=13     page=0  chnl=0 
char id=86   x=162     y=59     width=22     height=24     xoffset=-3     yoffset=-1    xadvance=13     page=0  chnl=0 
char id=84   x=184     y=59     width=22     height=24     xoffset=-4     yoffset=-1    xadvance=12     page=0  chnl=0 
char id=83   x=206     y=59     width=23     height=24     xoffset=-3     yoffset=-1    xadvance=15     page=0  chnl=0 
char id=80   x=229     y=59     width=22     height=24     xoffset=-3     yoffset=-1    xadvance=13     page=0  chnl=0 
char id=71   x=251     y=59     width=24     height=24     xoffset=-3     yoffset=-1    xadvance=16     page=0  chnl=0 
char id=70   x=275     y=59     width=20     height=24     xoffset=-3     yoffset=-1    xadvance=12     page=0  chnl=0 
char id=69   x=295     y=59     width=21     height=24     xoffset=-3     yoffset=-1    xadvance=13     page=0  chnl=0 
char id=68   x=316     y=59     width=23     height=24     xoffset=-3     yoffset=-1    xadvance=15     page=0  chnl=0 
char id=116   x=339     y=59     width=20     height=23     xoffset=-4     yoffset=0    xadvance=11     page=0  chnl=0 
char id=105   x=359     y=59     width=13     height=23     xoffset=-3     yoffset=0    xadvance=5     page=0  chnl=0 
char id=59   x=372     y=59     width=14     height=22     xoffset=-4     yoffset=4    xadvance=5     page=0  chnl=0 
char id=43   x=386     y=59     width=21     height=20     xoffset=-4     yoffset=3    xadvance=13     page=0  chnl=0 
char id=62   x=407     y=59     width=18     height=20     xoffset=-2     yoffset=3    xadvance=13     page=0  chnl=0 
char id=60   x=425     y=59     width=19     height=20     xoffset=-2     yoffset=3    xadvance=13     page=0  chnl=0 
char id=58   x=444     y=59     width=12     height=20     xoffset=-4     yoffset=3    xadvance=4     page=0  chnl=0 
char id=122   x=456     y=59     width=20     height=20     xoffset=-4     yoffset=3    xadvance=11     page=0  chnl=0 
char id=120   x=476     y=59     width=19     height=20     xoffset=-4     yoffset=3    xadvance=10     page=0  chnl=0 
char id=119   x=0     y=84     width=23     height=20     xoffset=-3     yoffset=3    xadvance=14     page=0  chnl=0 
char id=118   x=23     y=84     width=18     height=20     xoffset=-3     yoffset=3    xadvance=10     page=0  chnl=0 
char id=117   x=41     y=84     width=19     height=20     xoffset=-3     yoffset=3    xadvance=11     page=0  chnl=0 
char id=115   x=60     y=84     width=20     height=20     xoffset=-3     yoffset=3    xadvance=12     page=0  chnl=0 
char id=114   x=80     y=84     width=18     height=20     xoffset=-3     yoffset=3    xadvance=9     page=0  chnl=0 
char id=111   x=98     y=84     width=20     height=20     xoffset=-3     yoffset=3    xadvance=12     page=0  chnl=0 
char id=110   x=118     y=84     width=19     height=20     xoffset=-3     yoffset=3    xadvance=11     page=0  chnl=0 
char id=109   x=137     y=84     width=25     height=20     xoffset=-3     yoffset=3    xadvance=18     page=0  chnl=0 
char id=101   x=162     y=84     width=19     height=20     xoffset=-3     yoffset=3    xadvance=11     page=0  chnl=0 
char id=99   x=181     y=84     width=19     height=20     xoffset=-3     yoffset=3    xadvance=11     page=0  chnl=0 
char id=97   x=200     y=84     width=20     height=19     xoffset=-4     yoffset=4    xadvance=12     page=0  chnl=0 
char id=61   x=220     y=84     width=20     height=18     xoffset=-3     yoffset=4    xadvance=13     page=0  chnl=0 
char id=94   x=240     y=84     width=19     height=17     xoffset=-2     yoffset=-1    xadvance=14     page=0  chnl=0 
char id=39   x=259     y=84     width=13     height=17     xoffset=-4     yoffset=-3    xadvance=4     page=0  chnl=0 
char id=34   x=272     y=84     width=17     height=17     xoffset=-4     yoffset=-3    xadvance=8     page=0  chnl=0 
char id=42   x=289     y=84     width=16     height=16     xoffset=-3     yoffset=-2    xadvance=9     page=0  chnl=0 
char id=44   x=305     y=84     width=14     height=15     xoffset=-4     yoffset=11    xadvance=5     page=0  chnl=0 
char id=126   x=319     y=84     width=20     height=14     xoffset=-3     yoffset=6    xadvance=13     page=0  chnl=0 
char id=96   x=339     y=84     width=14     height=14     xoffset=-3     yoffset=-2    xadvance=9     page=0  chnl=0 
char id=45   x=353     y=84     width=16     height=13     xoffset=-3     yoffset=6    xadvance=8     page=0  chnl=0 
char id=46   x=369     y=84     width=11     height=13     xoffset=-2     yoffset=10    xadvance=6     page=0  chnl=0 
char id=95   x=380     y=84     width=22     height=12     xoffset=-4     yoffset=15    xadvance=12     page=0  chnl=0 
